<?xml version="1.0" encoding="UTF-8"?>
<svg width="30px" height="24px" viewBox="0 0 30 24" version="1.1" xmlns="http://www.w3.org/2000/svg" xmlns:xlink="http://www.w3.org/1999/xlink">
    <!-- Generator: Sketch 61.2 (89653) - https://sketch.com -->
    <title>Icons / Benefits / New-shop</title>
    <desc>Created with Sketch.</desc>
    <defs>
        <path d="M15,0.029296875 C16.1885834,0.029296875 17.1556091,0.996322617 17.1556091,2.18490598 C17.1556091,2.60078432 17.0368195,2.98942564 16.8317413,3.31924441 L16.8317413,3.31924441 L22.0220947,8.59153746 L27.9998016,8.59153746 C29.1027832,8.59153746 30,9.48875426 30,10.591507 L30,10.591507 L30,21.0591888 C30,22.1619415 29.1025543,23.0591583 27.9998016,23.0591583 L27.9998016,23.0591583 L26.6164398,23.0591583 C26.3733673,23.0591583 26.1763001,22.86232 26.1763001,22.6192474 C26.1763001,22.3761749 26.3733673,22.1791077 26.6164398,22.1791077 L26.6164398,22.1791077 L27.9998016,22.1791077 C28.6173248,22.1791077 29.1199494,21.6767121 29.1199494,21.0591888 L29.1199494,21.0591888 L29.1199494,10.591507 C29.1199494,9.97398375 28.6173248,9.47158816 27.9998016,9.47158816 L27.9998016,9.47158816 L5.67169189,9.47158816 C5.42861941,9.47158816 5.23155211,9.27452086 5.23155211,9.03144838 C5.23155211,8.78837584 5.42861941,8.59153746 5.67169189,8.59153746 L5.67169189,8.59153746 L7.97538756,8.59153746 L13.1991577,3.3677673 C12.9750824,3.02787779 12.8443909,2.62138365 12.8443909,2.18490598 C12.8443909,0.996322617 13.8114166,0.029296875 15,0.029296875 Z M3.71154785,8.59153746 C3.95462039,8.59153746 4.15168764,8.78837584 4.15168764,9.03144838 C4.15168764,9.27452086 3.95462039,9.47158816 3.71154785,9.47158816 L3.71154785,9.47158816 L2.00019838,9.47158816 C1.38244629,9.47158816 0.880050645,9.97398375 0.880050645,10.591507 L0.880050645,10.591507 L0.880050645,21.0591888 C0.880050645,21.6767121 1.38244629,22.1791077 2.00019838,22.1791077 L2.00019838,22.1791077 L24.8563385,22.1791077 C25.099411,22.1791077 25.2962494,22.3761749 25.2962494,22.6192474 C25.2962494,22.86232 25.099411,23.0591583 24.8563385,23.0591583 L24.8563385,23.0591583 L2.00019838,23.0591583 C0.897216797,23.0591583 -2.47268872e-13,22.1619415 -2.47268872e-13,21.0591888 L-2.47268872e-13,21.0591888 L-2.47268872e-13,10.591507 C-2.47268872e-13,9.48875426 0.897216797,8.59153746 2.00019838,8.59153746 L2.00019838,8.59153746 Z M8.65791322,13.6660767 C9.83734131,13.6660767 10.6764221,14.6342468 10.6764221,15.8253479 C10.6764221,17.0397949 9.86068723,17.9843903 8.65791322,17.9843903 C7.46704102,17.9843903 6.63963316,17.0397949 6.63963316,15.8253479 C6.63963316,14.6049499 7.46109012,13.6660767 8.65791322,13.6660767 Z M13.4745026,13.7365723 C14.3369293,13.7365723 14.9764252,14.2998504 14.9764252,15.1389313 C14.9764252,15.9954071 14.3135834,16.5293884 13.5097504,16.5293884 L13.5097504,16.5293884 L12.8583527,16.5293884 L12.8583527,17.4916077 C12.8583527,17.7850342 12.6706696,17.9491424 12.4184418,17.9493714 C12.166214,17.9493714 11.978302,17.7850342 11.978302,17.4916077 L11.978302,17.4916077 L11.978302,14.1943359 C11.978302,13.9185333 12.1426392,13.7365723 12.4360657,13.7365723 L12.4360657,13.7365723 Z M22.9202271,13.7013245 C23.1726837,13.7013245 23.3603668,13.8656616 23.3603668,14.1590882 L23.3603668,14.1590882 L23.3603668,17.4916077 C23.3603668,17.7850342 23.1726837,17.9493714 22.9202271,17.9493714 C22.8087616,17.9493714 22.6327515,17.8612518 22.5508118,17.7557373 L22.5508118,17.7557373 L20.6906891,15.3032684 L20.6790161,15.3032684 L20.6790161,17.4916077 C20.6790161,17.7850342 20.491333,17.9491424 20.2391052,17.9491424 C19.9866486,17.9491424 19.7989655,17.7848053 19.7989655,17.4916077 L19.7989655,17.4916077 L19.7989655,14.1588592 C19.7989655,13.8656616 19.9866486,13.7013245 20.2391052,13.7013245 C20.3505707,13.7013245 20.5323029,13.789444 20.6087494,13.8949585 L20.6087494,13.8949585 L22.4686432,16.3767243 L22.4803161,16.3767243 L22.4803161,14.1590882 C22.4803161,13.8656616 22.6679993,13.7013245 22.9202271,13.7013245 Z M18.0917358,13.7365723 C18.3734894,13.7365723 18.5085296,13.9361572 18.5085296,14.1414642 C18.5085296,14.3410492 18.3675384,14.5463562 18.0917358,14.5463562 L18.0917358,14.5463562 L17.0592499,14.5463562 L17.0592499,15.4030609 L18.0214691,15.4030609 C18.3089447,15.4030609 18.449707,15.602417 18.449707,15.807724 C18.449707,16.0073089 18.3029938,16.2126159 18.0214691,16.2126159 L18.0214691,16.2126159 L17.0592499,16.2126159 L17.0592499,17.1043396 L18.1446076,17.1043396 C18.4261322,17.1043396 18.5611725,17.3039245 18.5611725,17.5092316 C18.5611725,17.7085876 18.4204102,17.9141235 18.1446076,17.9141235 L18.1446076,17.9141235 L16.6307831,17.9141235 C16.3726044,17.9141235 16.1791992,17.7381134 16.1791992,17.4739837 L16.1791992,17.4739837 L16.1791992,14.2469788 C16.1791992,13.9537811 16.3256836,13.7365723 16.636734,13.7365723 L16.636734,13.7365723 Z M8.65791322,14.4758606 C7.92457582,14.4758606 7.55493164,15.1153564 7.55493164,15.8253479 C7.55493164,16.5410614 7.91290283,17.1748352 8.65791322,17.1748352 C9.40292355,17.1748352 9.7608948,16.5410614 9.7608948,15.8253479 C9.7608948,15.1153564 9.39125063,14.4758606 8.65791322,14.4758606 Z M13.4568786,14.5111084 L12.8583527,14.5111084 L12.8583527,15.7550812 L13.4568786,15.7550812 C13.8265228,15.7550812 14.0613556,15.4850006 14.0613556,15.1329803 C14.0613556,14.7809601 13.8265228,14.5111084 13.4568786,14.5111084 L13.4568786,14.5111084 Z M16.2249756,3.95713805 C15.8768463,4.1986084 15.4547882,4.34051514 15,4.34051514 C14.5655823,4.34051514 14.1611481,4.21096805 13.822403,3.98895264 L13.822403,3.98895264 L9.22004701,8.59153746 L20.7870483,8.59153746 Z M15,0.90934752 C14.2966461,0.90934752 13.7244415,1.48155211 13.7244415,2.18490598 C13.7244415,2.8882599 14.2966461,3.46046449 15,3.46046449 C15.7033539,3.46046449 16.2755585,2.8882599 16.2755585,2.18490598 C16.2755585,1.48155211 15.7033539,0.90934752 15,0.90934752 Z" id="path-1"></path>
    </defs>
    <g id="Symbols" stroke="none" stroke-width="1" fill="none" fill-rule="evenodd">
        <g id="Headers-/-Menu-line-services" transform="translate(-564.000000, -21.000000)">
            <g id="3" transform="translate(564.000000, 19.000000)">
                <g id="Icons-/-Benefits-/-New-shop">
                    <g id="Color-/-yellow" transform="translate(-0.000000, 2.400000)">
                        <mask id="mask-2" fill="white">
                            <use xlink:href="#path-1"></use>
                        </mask>
                        <use id="Mask" fill="#FFFFFF" fill-rule="nonzero" xlink:href="#path-1"></use>
                        <g id="Color-/-white" mask="url(#mask-2)" fill="#FFFFFF">
                            <g transform="translate(0.000000, -2.400000)" id="Rectangle">
                                <rect x="0" y="0" width="30" height="30"></rect>
                            </g>
                        </g>
                    </g>
                </g>
            </g>
        </g>
    </g>
</svg>