<?xml version="1.0" encoding="UTF-8"?>
<svg width="38px" height="29px" viewBox="0 0 38 29" version="1.1" xmlns="http://www.w3.org/2000/svg" xmlns:xlink="http://www.w3.org/1999/xlink">
    <!-- Generator: Sketch 62 (91390) - https://sketch.com -->
    <title>Icons / Benefits / Speed</title>
    <desc>Created with Sketch.</desc>
    <defs>
        <path d="M12.4677778,1.64085436 C14.9673333,0.725743248 17.6008148,0.352483989 20.2942963,0.531002507 C24.850963,0.833150655 29.1605926,2.80270621 32.4291852,6.07685436 C35.697037,9.35026177 37.6607407,13.6632247 37.9585185,18.2212247 C38.1111111,20.5562618 37.8433333,22.8609284 37.1625185,25.0711507 C36.5505185,27.0584099 34.7281481,28.3935951 32.6278519,28.3935951 L32.6278519,28.3935951 L5.37148148,28.3935951 C3.27296296,28.3935951 1.4522963,27.0630766 0.840962963,25.0827062 C0.282962963,23.2750025 4.53150998e-12,21.3926321 4.53150998e-12,19.4880395 C4.53150998e-12,16.8121136 0.545333333,14.2247062 1.62096296,11.797521 C2.65985185,9.45322473 4.13985185,7.37240991 6.01977778,5.61300251 C7.89644444,3.85663214 10.0658519,2.52026177 12.4677778,1.64085436 Z M18.9911111,1.67285436 C16.8904444,1.67285436 14.8385926,2.03500251 12.8752593,2.75381732 C10.6235556,3.57818769 8.58948148,4.8312988 6.82962963,6.47833584 C5.06644444,8.12848399 3.67859259,10.0796692 2.70451852,12.2777432 C1.69637037,14.5527062 1.18518519,16.9785581 1.18518519,19.4880395 C1.18518519,21.2740395 1.45037037,23.0387062 1.97340741,24.7331507 C2.42333333,26.1905581 3.82066667,27.208484 5.37148148,27.208484 L5.37148148,27.208484 L32.6279259,27.208484 C34.1801481,27.208484 35.5791111,26.1861136 36.0299259,24.7223358 C36.6680741,22.6504099 36.919037,20.4890766 36.776,18.2985581 C36.496963,14.0272247 34.6553333,9.98426177 31.5905185,6.91426177 C28.5251111,3.84366917 24.4855556,1.99670621 20.2159259,1.7135951 C19.8061481,1.68648399 19.3975556,1.67285436 18.9911111,1.67285436 Z M12.7,4.09855806 C15.2657037,3.04715066 17.9892593,2.6632988 20.7948889,2.95752103 C28.483037,3.7638914 34.6768148,9.9338914 35.5222963,17.6282618 C35.7745185,19.9233729 35.5622963,22.1920395 34.8914815,24.3712988 C34.592963,25.3410025 33.662963,26.0183358 32.6299259,26.0183358 L32.6299259,26.0183358 L5.37148148,26.0183358 C4.33688889,26.0183358 3.40525926,25.3378914 3.10585185,24.3635951 C2.62088889,22.785521 2.37503704,21.1450766 2.37503704,19.4878914 C2.37503704,16.3797432 3.23837037,13.3483358 4.87162963,10.721447 C5.04444444,10.443521 5.40985185,10.3583358 5.68777778,10.5310766 C5.96577778,10.7038914 6.05096296,11.0692988 5.87814815,11.3472247 C5.53459259,11.8998914 5.22807407,12.4719655 4.95888889,13.0596692 L4.95888889,13.0596692 L6.05014815,13.509447 C6.35274074,13.6341877 6.49696296,13.9806321 6.37222222,14.2831507 C6.278,14.5118914 6.05703704,14.6501136 5.82414815,14.6501136 C5.74888889,14.6501136 5.67251852,14.6357432 5.59859259,14.6052988 L5.59859259,14.6052988 L4.50748148,14.1555951 C3.95111111,15.6690766 3.634,17.2673729 3.572,18.895447 L3.572,18.895447 L4.74896296,18.895447 C5.07622222,18.895447 5.34155556,19.1607803 5.34155556,19.4880395 C5.34155556,19.8152988 5.07622222,20.0806321 4.74896296,20.0806321 L4.74896296,20.0806321 L3.57162963,20.0806321 C3.62274074,21.4177432 3.84637037,22.7387803 4.23874074,24.0155951 C4.38666667,24.4970766 4.85244444,24.8332988 5.37148148,24.8332988 L5.37148148,24.8332988 L5.74725926,24.8332988 C5.83355556,22.9733729 6.50214815,21.7138173 7.15088889,20.4920395 C7.63711111,19.5761877 8.09637037,18.7112247 8.32474074,17.5885581 C8.36666667,17.3825581 8.51459259,17.2141136 8.71355556,17.1460395 C8.91251852,17.0780395 9.13259259,17.1203358 9.292,17.257521 L9.292,17.257521 L10.946,18.6807062 C14.1695556,14.3121136 13.9573333,9.40166917 13.9547407,9.35070621 C13.9445926,9.15322473 14.0336296,8.96322473 14.1921481,8.84492843 C14.3505926,8.72655806 14.5575556,8.69478029 14.7442222,8.76085436 C16.449037,9.36403954 17.3136296,10.6131507 17.7245185,11.4751507 C18.3674815,10.7745581 19.3563704,9.38566917 19.7268889,7.19203954 C19.7567407,7.01522473 19.8651111,6.86137288 20.0216296,6.77374325 C20.1781481,6.68603954 20.3658519,6.67396547 20.5323704,6.74100251 C20.6264444,6.77878029 22.6976296,7.64315066 23.3624444,10.4512988 C23.8417778,10.2969284 24.5682222,9.98174325 25.2431111,9.36463214 C25.4846667,9.14374325 25.8595556,9.16055806 26.0802963,9.40211362 C26.3011852,9.6435951 26.2843704,10.018484 26.0428148,10.2392988 C24.6217778,11.5385581 23.0387407,11.7543358 22.9720741,11.7628544 C22.6511111,11.8041877 22.3561481,11.5798173 22.3101481,11.2592247 C22.074963,9.61974325 21.2877778,8.70300251 20.7174815,8.24063214 C19.8994074,11.498484 17.9105185,12.9315951 17.8194815,12.9957432 C17.6574815,13.1097432 17.4491852,13.1352247 17.2644444,13.0637432 C17.0797037,12.9921877 16.9428889,12.8330766 16.8999259,12.6396692 C16.884,12.5707803 16.5322222,11.1210766 15.1298519,10.2515951 C15.0399259,12.0840395 14.4854074,16.2002618 11.4946667,19.9095951 C11.394,20.034484 11.2468889,20.1132247 11.0871111,20.1277432 C10.9277037,20.142484 10.7685926,20.091521 10.6468889,19.9867803 L10.6468889,19.9867803 L9.23466667,18.7716692 C8.95444444,19.6229284 8.57140741,20.3442618 8.19785185,21.0478914 C7.59444444,22.1844099 7.02237037,23.2661136 6.93592593,24.8333729 L6.93592593,24.8333729 L32.6300741,24.8333729 C33.1477778,24.8333729 33.612,24.5001136 33.7588889,24.0228544 C33.9122963,23.5244099 34.0396296,23.0208544 34.1412593,22.5131507 C33.2208889,22.9031507 31.7495556,23.4207803 30.4214074,23.4208544 L30.4214074,23.4208544 L30.3894815,23.4207803 C30.2092593,23.4195951 30.0394074,23.3365581 29.9278519,23.1950766 C29.8162963,23.0535951 29.7751852,22.8690025 29.8161481,22.693521 C29.8251852,22.6543358 30.6527407,19.0073729 29.7676296,16.198484 L29.7676296,16.198484 L27.4175556,17.755447 C27.2211852,17.8855951 26.9665926,17.8870766 26.7687407,17.7592247 C26.570963,17.631447 26.4675556,17.3987062 26.5054074,17.1662618 C26.5077778,17.1513729 26.7485926,15.6460395 26.614963,14.7103358 C26.5686667,14.3863358 26.7937778,14.0861877 27.1177778,14.0398914 C27.442,13.9932988 27.7419259,14.2187803 27.7882222,14.5427062 C27.8553333,15.0123358 27.8479259,15.5729284 27.816,16.0698173 L27.816,16.0698173 L29.7319259,14.800484 C29.8771852,14.7042618 30.0574074,14.6767062 30.2248148,14.725521 C30.3921481,14.7741877 30.5295556,14.8941136 30.6005185,15.0532247 C31.6992593,17.5179655 31.3605185,20.7241136 31.1199259,22.1837432 C32.4819259,21.9931507 33.9082222,21.3328544 34.3537778,21.1138173 C34.39,20.7708544 34.4151852,20.426484 34.4282963,20.0807062 L34.4282963,20.0807062 L33.2508889,20.0807062 C32.9236296,20.0807062 32.6582963,19.8153729 32.6582963,19.4881136 C32.6582963,19.1608544 32.9236296,18.895521 33.2508889,18.895521 L33.2508889,18.895521 L34.428,18.895521 C34.4135556,18.5173729 34.3861481,18.1381136 34.3443704,17.7579655 C34.2048148,16.4887062 33.9079259,15.264484 33.475037,14.1045581 L33.475037,14.1045581 L32.3842222,14.5586321 C32.3097778,14.5895951 32.2325926,14.6042618 32.1567407,14.6042618 C31.9245185,14.6042618 31.7042222,14.4669284 31.6094074,14.2392247 C31.4837037,13.9370766 31.6266667,13.5901877 31.9288148,13.4644099 L31.9288148,13.4644099 L33.0186667,13.0107062 C32.3332593,11.5342618 31.42,10.1821877 30.3254815,9.00055806 L30.3254815,9.00055806 L29.4959259,9.83011362 C29.3802222,9.94581732 29.2285185,10.0036692 29.0768889,10.0036692 C28.9251852,10.0036692 28.7735556,9.9458914 28.6578519,9.83011362 C28.4263704,9.59870621 28.4263704,9.22352103 28.6578519,8.99211362 L28.6578519,8.99211362 L29.4874074,8.16263214 C28.2925926,7.05440991 26.9241481,6.13211362 25.4294074,5.44418769 L25.4294074,5.44418769 L24.9784444,6.53826177 C24.8842222,6.76700251 24.6632593,6.90522473 24.4303704,6.90522473 C24.3551111,6.90522473 24.2787407,6.89085436 24.2048148,6.86040991 C23.9022222,6.73566917 23.758,6.38922473 23.8827407,6.08670621 L23.8827407,6.08670621 L24.3341481,4.99152103 C23.1705926,4.56203954 21.9431852,4.26974325 20.6713333,4.13633584 C20.3101481,4.09848399 19.9505926,4.0738914 19.5925926,4.06011362 L19.5925926,4.06011362 L19.5925926,5.23722473 C19.5925926,5.56448399 19.3272593,5.82981732 19,5.82981732 C18.6727407,5.82981732 18.4074074,5.56448399 18.4074074,5.23722473 L18.4074074,5.23722473 L18.4074074,4.05915066 C16.7635556,4.11922473 15.1602222,4.43715066 13.6164444,5.01285436 L13.6164444,5.01285436 L14.0705926,6.10381732 C14.1962963,6.40596547 14.0533333,6.75285436 13.7511852,6.87863214 C13.6767407,6.9095951 13.5995556,6.92426177 13.5237037,6.92426177 C13.2914815,6.92426177 13.0711852,6.78692843 12.9763704,6.55922473 L12.9763704,6.55922473 L12.5231852,5.47048399 C11.0585185,6.14944695 9.69948148,7.06085436 8.51066667,8.16070621 L8.51066667,8.16070621 L9.34214815,8.99218769 C9.57362963,9.2235951 9.57362963,9.59878029 9.34214815,9.83018769 C9.22644444,9.9458914 9.07481481,10.0037432 8.92311111,10.0037432 C8.77140741,10.0037432 8.61977778,9.94596547 8.50407407,9.83018769 L8.50407407,9.83018769 L7.67259259,8.99870621 C7.53711111,9.14478029 7.40340741,9.29255806 7.27362963,9.4438914 C7.06066667,9.69226177 6.68651852,9.72107658 6.43807407,9.50803954 C6.18962963,9.29507658 6.16088889,8.92092843 6.37392593,8.67248399 C8.08733333,6.67396547 10.2748889,5.09233584 12.7,4.09855806 Z M25.7777778,11.8826321 C26.0136296,11.7118914 26.3385926,11.7376692 26.5444444,11.943521 C26.7502963,12.1493729 26.7761481,12.4743358 26.6054074,12.7102618 L26.6054074,12.7102618 L21.9456296,19.1435951 C22.0465185,20.0138173 21.7646667,20.9204099 21.0985185,21.5865581 C20.5199259,22.1651507 19.76,22.4544099 19,22.4544099 C18.24,22.4544099 17.4800741,22.1651507 16.9014815,21.5865581 C15.7443704,20.429447 15.7443704,18.5466321 16.9014815,17.389521 C17.5676296,16.7233729 18.4742963,16.441521 19.3445185,16.5424099 L19.3445185,16.5424099 Z M19,17.7062618 C18.5435556,17.7062618 18.087037,17.8800395 17.7395556,18.227521 C17.0445185,18.9225581 17.0445185,20.053447 17.7395556,20.748484 C18.4345926,21.443521 19.5654074,21.443521 20.2604444,20.748484 C20.9554815,20.053447 20.9554815,18.9225581 20.2604444,18.227521 C19.912963,17.8800395 19.4564444,17.7062618 19,17.7062618 Z M23.4712593,15.0167062 L20.6773333,17.0404099 C20.8255556,17.1420395 20.9668889,17.2578914 21.0984444,17.389447 C21.2300741,17.5210766 21.3459259,17.6624099 21.4475556,17.8106321 L21.4475556,17.8106321 L23.4712593,15.0167062 Z" id="path-1"></path>
    </defs>
    <g id="Web" stroke="none" stroke-width="1" fill="none" fill-rule="evenodd">
        <g id="Desktop-Mobile" transform="translate(-218.000000, -2917.000000)">
            <g id="Service" transform="translate(14.000000, 2835.000000)">
                <g id="Скорость" transform="translate(153.000000, 53.000000)">
                    <g id="Icons-/-Benefits-/-Speed" transform="translate(51.000000, 25.000000)">
                        <g id="Color-/-yellow" transform="translate(0.000000, 4.082405)">
                            <mask id="mask-2" fill="white">
                                <use xlink:href="#path-1"></use>
                            </mask>
                            <use id="Mask" fill="#FFFFFF" fill-rule="nonzero" xlink:href="#path-1"></use>
                            <g id="Color-/-Dark" mask="url(#mask-2)" fill="#4F515E">
                                <g transform="translate(0.000000, -4.560000)" id="Rectangle">
                                    <rect x="0" y="0" width="38" height="38"></rect>
                                </g>
                            </g>
                        </g>
                    </g>
                </g>
            </g>
        </g>
    </g>
</svg>