<?xml version="1.0" encoding="UTF-8"?>
<svg width="25px" height="25px" viewBox="0 0 25 25" version="1.1" xmlns="http://www.w3.org/2000/svg" xmlns:xlink="http://www.w3.org/1999/xlink">
    <!-- Generator: Sketch 61.2 (89653) - https://sketch.com -->
    <title>Icons / Gray / Close</title>
    <desc>Created with Sketch.</desc>
    <g id="Web" stroke="none" stroke-width="1" fill="none" fill-rule="evenodd">
        <g id="Shopping-bag" transform="translate(-1774.000000, -471.000000)" fill="#4F515E" fill-rule="nonzero">
            <g id="Table" transform="translate(0.000000, 305.000000)">
                <g id="1-Item" transform="translate(0.000000, 136.000000)">
                    <g id="Icons-/-Gray-/-Close" transform="translate(1774.000000, 30.000000)">
                        <path d="M13.8138005,12.0619005 L23.7256009,2.20430009 C24.200801,1.73390007 24.200801,0.972400039 23.7256009,0.50320002 C23.2516009,0.0328000013 22.4817009,0.0328000013 22.0077009,0.50320002 L12.1044005,10.3524004 L2.10950008,0.356400014 C1.63550006,-0.118800005 0.865600034,-0.118800005 0.391600016,0.356400014 C-0.0824000033,0.832800033 -0.0824000033,1.60390006 0.391600016,2.07910008 L10.3792004,12.0679005 L0.355500014,22.0362009 C-0.118500005,22.5066009 -0.118500005,23.2681009 0.355500014,23.7373009 C0.829500033,24.207701 1.59940006,24.207701 2.07340008,23.7373009 L12.0886005,13.7774005 L22.0437009,23.7337009 C22.5177009,24.208901 23.2876009,24.208901 23.7616009,23.7337009 C24.235601,23.2573009 24.235601,22.4862009 23.7616009,22.0110009 L13.8138005,12.0619005 Z" id="Close"></path>
                    </g>
                </g>
            </g>
        </g>
    </g>
</svg>