<?xml version="1.0" encoding="UTF-8"?>
<svg width="30px" height="30px" viewBox="0 0 30 30" version="1.1" xmlns="http://www.w3.org/2000/svg" xmlns:xlink="http://www.w3.org/1999/xlink">
    <!-- Generator: Sketch 61.2 (89653) - https://sketch.com -->
    <title>Icons / Gray / courier</title>
    <desc>Created with Sketch.</desc>
    <g id="Web" stroke="none" stroke-width="1" fill="none" fill-rule="evenodd">
        <g id="Shopping-bag" transform="translate(-989.000000, -1874.000000)" fill="#7C7C97">
            <g id="Order-creation" transform="translate(0.000000, 1617.000000)">
                <g id="Delivery" transform="translate(973.000000, 140.000000)">
                    <g id="Courier-NP" transform="translate(0.000000, 107.000000)">
                        <g id="Icons-/-Gray-/-courier" transform="translate(16.000000, 10.000000)">
                            <g id="messenger">
                                <path d="M27.7867194,24.9599994 C28.4111994,24.3494395 28.7999994,23.4998395 28.7999994,22.5599995 C28.7999994,20.9255995 27.6263994,19.5614396 26.0779194,19.2623996 C26.2271994,18.6623996 26.3999994,17.5929596 26.3999994,15.8399996 C26.3999994,13.8364797 24.9345594,12.1881597 24.2121595,11.4959997 C24.3777595,11.2089597 24.4799995,10.8806398 24.4799995,10.5263998 C24.4799995,10.1395198 24.3667195,9.76511978 24.1516795,9.44255979 C23.7767995,8.8809598 23.1974395,8.52239981 22.5599995,8.41391981 L22.5599995,7.31663984 C22.5599995,6.80399985 22.3603195,6.32207986 21.9974395,5.95871987 L21.0974395,5.05871989 C20.9903995,4.3703999 20.3985595,3.83999991 19.6799996,3.83999991 C18.8860796,3.83999991 18.2399996,4.4860799 18.2399996,5.27999988 C18.2399996,6.07391986 18.8860796,6.71999985 19.6799996,6.71999985 C20.1489595,6.71999985 20.5617595,6.49151985 20.8247995,6.14351986 L21.3187195,6.63743985 C21.5001595,6.81935985 21.5999995,7.06031984 21.5999995,7.31663984 L21.5999995,8.43887981 L20.5459195,8.64959981 L20.5459195,8.65007981 C20.5171195,8.64767981 20.4892795,8.63999981 20.4604795,8.63999981 L17.2636796,8.63999981 C17.0001596,8.63999981 16.7860796,8.42447981 16.7860796,8.15999982 L16.7860796,7.32911984 C16.7860796,6.67151985 16.5278396,6.07679986 16.1155196,5.62655987 C17.0673596,5.30783988 17.7599996,4.4179199 17.7599996,3.35999992 L17.7599996,2.87999994 L18.7199996,2.87999994 L18.7199996,1.91999996 L17.6966396,1.91999996 C17.4652796,0.90575998 16.6243196,0.109439998 15.5937597,0.0110399998 C14.9222397,-0.0523199988 14.2444797,0.169919996 13.7452797,0.623519986 C13.2460797,1.07711998 12.9599997,1.72511996 12.9599997,2.39999995 L12.9599997,3.35999992 C12.9599997,3.95183991 13.1836797,4.4875199 13.5403197,4.90655989 C12.8572797,5.11199989 12.2769597,5.60207987 11.9697597,6.26927986 L9.82511978,10.9267198 C9.67775978,11.2463997 9.59999979,11.6006397 9.59999979,11.9519997 C9.59999979,12.5126397 9.79295978,13.0281597 10.1140798,13.4399997 L9.51119979,13.4399997 C9.56543979,13.2892797 9.59999979,13.1289597 9.59999979,12.9599997 L9.59999979,11.9519997 L9.59999979,7.19999984 C9.59999979,6.40607986 8.9539198,5.75999987 8.15999982,5.75999987 L2.39999995,5.75999987 C1.60607996,5.75999987 0.959999979,6.40607986 0.959999979,7.19999984 L0.959999979,12.9599997 C0.959999979,13.7539197 1.60607996,14.3999997 2.39999995,14.3999997 L6.60191985,14.3999997 C6.38159986,14.7431997 6.23999986,15.2059197 6.23999986,15.8399996 C6.23999986,16.9463996 7.31663984,17.6971196 8.45663981,18.4919996 C8.8545598,18.7694396 9.25679979,19.0497596 9.62159978,19.3468796 C9.31055979,19.2518396 8.9812798,19.1999996 8.63999981,19.1999996 C6.78767985,19.1999996 5.27999988,20.7071995 5.27999988,22.5599995 C5.27999988,23.4998395 5.66879987,24.3494395 6.29327986,24.9599994 L6.82121011e-15,24.9599994 L6.82121011e-15,25.9199994 L12.4799997,25.9199994 L12.4799997,24.9599994 L10.9867198,24.9599994 C11.2324797,24.7195194 11.4417597,24.4420795 11.6054397,24.1358395 C11.9529597,24.3033595 12.5279997,24.4799995 13.4399997,24.4799995 C14.2540797,24.4799995 15.3115197,24.3964795 16.5364796,24.2999995 C18.1881596,24.1694395 20.2353595,24.0086395 22.4092795,24.0014395 C22.5806395,24.3604795 22.8115195,24.6849594 23.0927995,24.9599994 L19.1999996,24.9599994 L19.1999996,25.9199994 L29.7599993,25.9199994 L29.7599993,24.9599994 L27.7867194,24.9599994 Z M19.6799996,5.75999987 C19.4150396,5.75999987 19.1999996,5.54447988 19.1999996,5.27999988 C19.1999996,5.01551989 19.4150396,4.79999989 19.6799996,4.79999989 C19.9449596,4.79999989 20.1599995,5.01551989 20.1599995,5.27999988 C20.1599995,5.54447988 19.9449596,5.75999987 19.6799996,5.75999987 Z M14.8857597,21.1199995 C14.6639997,21.1142395 14.3999997,21.0263995 14.3999997,20.6399995 C14.3999997,19.7476796 14.9039997,18.9331196 15.3911997,18.1454396 C15.6590396,17.7129596 15.9153596,17.2934396 16.0915196,16.8667196 C16.2263996,17.1479996 16.3046396,17.4470396 16.3046396,17.7652796 L16.3267196,19.6799996 L16.3199996,19.6799996 L16.3199996,20.6399995 C16.3199996,20.8089595 16.3545596,20.9692795 16.4083196,21.1199995 L14.8857597,21.1199995 Z M7.36991984,16.3199996 C7.26335984,16.1591996 7.19999984,15.9993596 7.19999984,15.8399996 C7.19999984,14.5031997 7.98239982,14.3999997 9.0878398,14.3999997 L11.9913597,14.3999997 C13.2547197,14.6649597 14.5219197,15.1891197 15.3532797,15.9249596 C15.3441597,16.0526396 15.3163197,16.1841596 15.2716797,16.3199996 L7.36991984,16.3199996 Z M10.6228798,11.5492797 L14.9500797,12.6038397 C16.8873596,13.0795197 18.2399996,14.7854397 18.2399996,16.7519996 L18.2399996,19.1999996 L17.2809596,19.1999996 L17.2646396,17.7599996 C17.2646396,15.3681597 14.4945597,13.8355197 11.7494397,13.3771197 C11.0601598,13.2623997 10.5599998,12.6628797 10.5599998,11.9519997 C10.5599998,11.8161597 10.5859198,11.6812797 10.6228798,11.5492797 Z M17.2799996,20.6399995 L17.2799996,20.1599995 L18.2399996,20.1599995 C18.6249596,20.1599995 19.0151996,20.3827195 19.1687996,20.6903995 C19.1894396,20.7316795 19.1999996,20.7777595 19.1999996,20.8233595 C19.1999996,20.9870395 19.0679996,21.1199995 18.9052796,21.1199995 L17.7599996,21.1199995 C17.4950396,21.1199995 17.2799996,20.9044795 17.2799996,20.6399995 Z M20.0275196,20.2617595 C19.8537596,19.9127996 19.5561596,19.6300796 19.1999996,19.4433596 L19.1999996,16.7519996 C19.1999996,14.5948797 17.8732796,12.6983997 15.8971196,11.9063997 L16.0574396,11.4249597 C16.2955196,11.4873597 16.5398396,11.5199997 16.7846396,11.5199997 L19.0204796,11.5199997 C19.1092796,11.5199997 19.1971196,11.5142397 19.2844796,11.5070397 C19.4798396,12.0710397 20.0102396,12.4799997 20.6399995,12.4799997 L20.0183996,13.3084797 C19.8004796,13.5998397 19.6799996,13.9607997 19.6799996,14.3246397 C19.6799996,14.7772797 19.8623996,15.2083197 20.1931195,15.5390397 C20.5391995,15.8846396 21.1199995,16.6329596 21.1199995,17.7599996 C21.1199995,19.1423996 20.5775995,20.5502395 20.3313595,21.1199995 L20.1211196,21.1199995 C20.1441595,21.0244795 20.1599995,20.9260795 20.1599995,20.8233595 C20.1599995,20.6294395 20.1139196,20.4350395 20.0275196,20.2617595 Z M20.8713595,14.8593597 C20.7225595,14.7100797 20.6399995,14.5204797 20.6399995,14.3246397 C20.6399995,14.1671997 20.6918395,14.0107197 20.7868795,13.8844797 L21.8399995,12.4799997 L21.9057595,12.4799997 C22.2883195,12.8164797 23.5199995,14.0390397 23.5199995,15.8399996 C23.5199995,17.8703996 23.2742395,19.4203196 23.1398395,20.1177596 C22.8379195,20.4023995 22.5897595,20.7417595 22.4087995,21.1199995 L21.3700795,21.1199995 C21.6686395,20.3577595 22.0799995,19.0708796 22.0799995,17.7599996 C22.0799995,16.2868796 21.3230395,15.3105597 20.8713595,14.8593597 L20.8713595,14.8593597 Z M23.0884795,22.0799995 C23.1508795,21.7742395 23.2727995,21.4900795 23.4398395,21.2385595 L24.1444795,21.9431995 C24.1233595,21.9878395 24.1051195,22.0334395 24.0887995,22.0799995 L23.0884795,22.0799995 Z M25.4399994,23.0399995 C25.1750394,23.0399995 24.9599994,22.8244795 24.9599994,22.5599995 C24.9599994,22.2955195 25.1750394,22.0799995 25.4399994,22.0799995 C25.7049594,22.0799995 25.9199994,22.2955195 25.9199994,22.5599995 C25.9199994,22.8244795 25.7049594,23.0399995 25.4399994,23.0399995 Z M25.9199994,23.9116795 C25.9670394,23.8948795 26.0126394,23.8771195 26.0567994,23.8559995 L26.7614394,24.5606395 C26.5099194,24.7276794 26.2257594,24.8495994 25.9199994,24.9119994 L25.9199994,23.9116795 Z M27.4401594,23.8814395 L26.7355194,23.1767995 C26.7566394,23.1321595 26.7748794,23.0865595 26.7911994,23.0399995 L27.7910394,23.0399995 C27.7291194,23.3457595 27.6071994,23.6299195 27.4401594,23.8814395 Z M26.7916794,22.0799995 C26.7748794,22.0329595 26.7571194,21.9873595 26.7359994,21.9431995 L27.4406394,21.2385595 C27.6076794,21.4900795 27.7295994,21.7742395 27.7919994,22.0799995 L26.7916794,22.0799995 Z M26.0567994,21.2644795 C26.0121594,21.2433595 25.9665594,21.2251195 25.9199994,21.2087995 L25.9199994,20.2089595 C26.2257594,20.2713595 26.5099194,20.3932795 26.7614394,20.5603195 L26.0567994,21.2644795 Z M24.9599994,21.2083195 C24.9129594,21.2251195 24.8673594,21.2428795 24.8231994,21.2639995 L24.1185595,20.5593595 C24.3700795,20.3923195 24.6542394,20.2703995 24.9599994,20.2079995 L24.9599994,21.2083195 Z M24.0883195,23.0399995 C24.1051195,23.0870395 24.1228795,23.1326395 24.1439995,23.1767995 L23.4393595,23.8814395 C23.2723195,23.6299195 23.1503995,23.3457595 23.0879995,23.0399995 L24.0883195,23.0399995 Z M24.8231994,23.8555195 C24.8678394,23.8766395 24.9134394,23.8943995 24.9599994,23.9111995 L24.9599994,24.9110394 C24.6542394,24.8486394 24.3700795,24.7267194 24.1185595,24.5596795 L24.8231994,23.8555195 Z M25.4399994,15.8399996 C25.4399994,17.7638396 25.2196794,18.7895996 25.0943994,19.2177596 C24.7919994,19.2489596 24.5030395,19.3233596 24.2294395,19.4294396 C24.3542395,18.5697596 24.4799995,17.3356796 24.4799995,15.8399996 C24.4799995,14.2660797 23.7441595,13.0809597 23.1398395,12.3715197 C23.2819195,12.3239997 23.4167995,12.2635197 23.5425595,12.1867197 C24.1579195,12.7785597 25.4399994,14.2075197 25.4399994,15.8399996 Z M23.3529595,9.97487978 C23.4623995,10.1390398 23.5199995,10.3295998 23.5199995,10.5263998 C23.5199995,11.0745598 23.0740795,11.5199997 22.5263995,11.5199997 L20.6399995,11.5199997 C20.4647995,11.5199997 20.3174395,11.4206397 20.2339195,11.2799997 C20.6155195,11.1220798 20.9659195,10.8887998 21.2668795,10.5873598 C21.5246395,10.3286398 21.6436795,9.95855978 21.5851195,9.59759979 C21.5755195,9.53951979 21.5548795,9.48479979 21.5366395,9.42959979 L21.8745595,9.36191979 C22.4481595,9.24767979 23.0284795,9.48815979 23.3529595,9.97487978 Z M17.2636796,9.59999979 L20.4604795,9.59999979 C20.4883195,9.59999979 20.5151995,9.60671979 20.5401595,9.61919978 C20.6116795,9.65519978 20.6318395,9.71807978 20.6375995,9.75215978 C20.6433595,9.78671978 20.6443195,9.85247978 20.5871995,9.90959978 C20.1686395,10.3291198 19.6118396,10.5599998 19.0204796,10.5599998 L16.7846396,10.5599998 C15.9839996,10.5599998 15.4055997,10.1524798 15.1051197,9.43871979 L16.2307196,9.1574398 C16.4923196,9.42911979 16.8575996,9.59999979 17.2636796,9.59999979 L17.2636796,9.59999979 Z M14.3913597,1.33391997 C14.6947197,1.05791998 15.0863997,0.926879979 15.5025597,0.966719978 C16.0463996,1.01903998 16.5019196,1.40351997 16.6972796,1.91999996 L14.0025597,1.91999996 C14.0812797,1.69775996 14.2137597,1.49567997 14.3913597,1.33391997 L14.3913597,1.33391997 Z M13.9199997,2.87999994 L16.7999996,2.87999994 L16.7999996,3.35999992 C16.7999996,4.15391991 16.1539196,4.79999989 15.3599997,4.79999989 C14.5660797,4.79999989 13.9199997,4.15391991 13.9199997,3.35999992 L13.9199997,2.87999994 Z M12.8414397,6.67103985 C13.0963197,6.11759986 13.6535997,5.75999987 14.2617597,5.75999987 C15.1243197,5.75999987 15.8260796,6.46367986 15.8260796,7.32911984 L15.8260796,8.15999982 C15.8260796,8.19647982 15.8342396,8.23055982 15.8366396,8.26607982 L14.8915197,8.50223981 C14.8823997,8.38991981 14.8703997,8.27999981 14.8703997,8.15999982 L14.8703997,7.67999983 L13.9103997,7.67999983 L13.9103997,8.15999982 C13.9103997,9.56831979 14.4431997,10.5019198 15.1809597,11.0203198 L14.9798397,11.6231997 L11.0068798,10.6550398 L12.8414397,6.67103985 Z M4.79999989,6.71999985 L5.75999987,6.71999985 L5.75999987,7.67999983 L4.79999989,7.67999983 L4.79999989,6.71999985 Z M1.91999996,12.9599997 L1.91999996,7.19999984 C1.91999996,6.93551984 2.13503995,6.71999985 2.39999995,6.71999985 L3.83999991,6.71999985 L3.83999991,8.63999981 L6.71999985,8.63999981 L6.71999985,6.71999985 L8.15999982,6.71999985 C8.42495981,6.71999985 8.63999981,6.93551984 8.63999981,7.19999984 L8.63999981,12.9599997 C8.63999981,13.2244797 8.42495981,13.4399997 8.15999982,13.4399997 L2.39999995,13.4399997 C2.13503995,13.4399997 1.91999996,13.2244797 1.91999996,12.9599997 Z M9.99167978,22.0799995 C9.97487978,22.0329595 9.95711978,21.9873595 9.93599978,21.9431995 L10.6406398,21.2385595 C10.8076798,21.4900795 10.9295998,21.7742395 10.9919998,22.0799995 L9.99167978,22.0799995 Z M9.1199998,22.5599995 C9.1199998,22.8244795 8.9049598,23.0399995 8.63999981,23.0399995 C8.37503981,23.0399995 8.15999982,22.8244795 8.15999982,22.5599995 C8.15999982,22.2955195 8.37503981,22.0799995 8.63999981,22.0799995 C8.9049598,22.0799995 9.1199998,22.2955195 9.1199998,22.5599995 Z M9.25679979,21.2644795 C9.21215979,21.2433595 9.1665598,21.2251195 9.1199998,21.2087995 L9.1199998,20.2089595 C9.42575979,20.2713595 9.70991978,20.3932795 9.96143978,20.5603195 L9.25679979,21.2644795 Z M8.15999982,21.2083195 C8.11295982,21.2251195 8.06735982,21.2428795 8.02319982,21.2639995 L7.31855984,20.5593595 C7.57007983,20.3923195 7.85423982,20.2703995 8.15999982,20.2079995 L8.15999982,21.2083195 Z M7.34447984,21.9431995 C7.32335984,21.9878395 7.30511984,22.0334395 7.28879984,22.0799995 L6.28895986,22.0799995 C6.35135986,21.7742395 6.47327986,21.4900795 6.64031985,21.2385595 L7.34447984,21.9431995 Z M7.28831984,23.0399995 C7.30511984,23.0870395 7.32287984,23.1326395 7.34399984,23.1767995 L6.63935985,23.8814395 C6.47231986,23.6299195 6.35039986,23.3457595 6.28799986,23.0399995 L7.28831984,23.0399995 Z M8.02319982,23.8555195 C8.06783982,23.8766395 8.11343982,23.8943995 8.15999982,23.9111995 L8.15999982,24.9110394 C7.85423982,24.8486394 7.57007983,24.7267194 7.31855984,24.5596795 L8.02319982,23.8555195 Z M9.1199998,23.9116795 C9.1670398,23.8948795 9.21263979,23.8771195 9.25679979,23.8559995 L9.96143978,24.5606395 C9.70991978,24.7276794 9.42575979,24.8495994 9.1199998,24.9119994 L9.1199998,23.9116795 Z M10.6401598,23.8814395 L9.93551978,23.1767995 C9.95663978,23.1321595 9.97487978,23.0865595 9.99119978,23.0399995 L10.9910398,23.0399995 C10.9291198,23.3457595 10.8071998,23.6299195 10.6401598,23.8814395 L10.6401598,23.8814395 Z M11.9999997,23.2627195 L11.9999997,21.6868795 C11.9999997,19.7923196 10.3396798,18.6345596 9.0062398,17.7047996 C8.8007998,17.5612796 8.59919981,17.4201596 8.40767981,17.2799996 L14.7950397,17.2799996 C14.7235197,17.3985596 14.6500797,17.5185596 14.5747197,17.6399996 C14.0428797,18.5001596 13.4399997,19.4745596 13.4399997,20.6399995 C13.4399997,21.3340795 13.8124797,21.7334395 14.2315197,21.9287995 L13.5964797,23.5166395 C13.5460797,23.5171195 13.4879997,23.5199995 13.4399997,23.5199995 C12.6513597,23.5199995 12.2054397,23.3630395 11.9999997,23.2627195 Z M16.4611196,23.3423995 C15.7991996,23.3947195 15.1934397,23.4412795 14.6471997,23.4743995 L15.2049597,22.0799995 L22.1183995,22.0799995 C22.0958395,22.2374395 22.0799995,22.3967995 22.0799995,22.5599995 C22.0799995,22.7246395 22.0958395,22.8854395 22.1188795,23.0438395 C20.0179196,23.0635195 18.0561596,23.2166395 16.4611196,23.3423995 L16.4611196,23.3423995 Z" id="Shape" fill-rule="nonzero"></path>
                                <polygon id="Path" fill-rule="nonzero" points="17.2799996 24.9599994 18.2399996 24.9599994 18.2399996 25.9199994 17.2799996 25.9199994"></polygon>
                                <polygon id="Path" fill-rule="nonzero" points="0 28.7999994 5.75999987 28.7999994 5.75999987 29.7599993 0 29.7599993"></polygon>
                                <polygon id="Path" fill-rule="nonzero" points="8.63999981 28.7999994 14.3999997 28.7999994 14.3999997 29.7599993 8.63999981 29.7599993"></polygon>
                                <polygon id="Path" fill-rule="nonzero" points="6.71999985 28.7999994 7.67999983 28.7999994 7.67999983 29.7599993 6.71999985 29.7599993"></polygon>
                                <polygon id="Path" fill-rule="nonzero" points="15.3599997 28.7999994 29.7599993 28.7999994 29.7599993 29.7599993 15.3599997 29.7599993"></polygon>
                                <polygon id="Path" fill-rule="nonzero" points="13.4399997 24.9599994 16.3199996 24.9599994 16.3199996 25.9199994 13.4399997 25.9199994"></polygon>
                            </g>
                        </g>
                    </g>
                </g>
            </g>
        </g>
    </g>
</svg>