<?xml version="1.0" encoding="UTF-8"?>
<svg width="20px" height="20px" viewBox="0 0 20 20" version="1.1" xmlns="http://www.w3.org/2000/svg" xmlns:xlink="http://www.w3.org/1999/xlink">
    <!-- Generator: Sketch 62 (91390) - https://sketch.com -->
    <title>Icons / Gray / List</title>
    <desc>Created with Sketch.</desc>
    <g id="Web" stroke="none" stroke-width="1" fill="none" fill-rule="evenodd">
        <g id="Category" transform="translate(-1802.000000, -1024.000000)" fill="#C0C1CC" fill-rule="nonzero">
            <g id="Sort-line-1" transform="translate(76.000000, 1009.000000)">
                <g id="Type" transform="translate(1553.000000, 15.000000)">
                    <g id="Icons-/-Gray-/-List" transform="translate(173.000000, 0.000000)">
                        <path d="M2,16 C3.1045695,16 4,16.8954305 4,18 C4,19.1045695 3.1045695,20 2,20 C0.8954305,20 0,19.1045695 0,18 C0,16.8954305 0.8954305,16 2,16 Z M18,16 C19.1054688,16 20,16.8945312 20,18 C20,19.1054688 19.1054688,20 18,20 L9,20 C7.8945312,20 7,19.1054688 7,18 C7,16.8945312 7.8945312,16 9,16 L18,16 Z M2,8 C3.1045695,8 4,8.8954305 4,10 C4,11.1045695 3.1045695,12 2,12 C0.8954305,12 0,11.1045695 0,10 C0,8.8954305 0.8954305,8 2,8 Z M18,8 C19.1054688,8 20,8.8945312 20,10 C20,11.1054688 19.1054688,12 18,12 L9,12 C7.8945312,12 7,11.1054688 7,10 C7,8.8945312 7.8945312,8 9,8 L18,8 Z M2,0 C3.1045695,0 4,0.8954305 4,2 C4,3.1045695 3.1045695,4 2,4 C0.8954305,4 0,3.1045695 0,2 C0,0.8954305 0.8954305,0 2,0 Z M18,0 C19.1054688,0 20,0.8945312 20,2 C20,3.1054688 19.1054688,4 18,4 L9,4 C7.8945312,4 7,3.1054688 7,2 C7,0.8945312 7.8945312,0 9,0 L18,0 Z" id="Combined-Shape"></path>
                    </g>
                </g>
            </g>
        </g>
    </g>
</svg>