<?xml version="1.0" encoding="UTF-8"?>
<svg width="20px" height="20px" viewBox="0 0 20 20" version="1.1" xmlns="http://www.w3.org/2000/svg" xmlns:xlink="http://www.w3.org/1999/xlink">
    <!-- Generator: Sketch 62 (91390) - https://sketch.com -->
    <title>Combined Shape</title>
    <desc>Created with Sketch.</desc>
    <g id="Symbols" stroke="none" stroke-width="1" fill="none" fill-rule="evenodd">
        <g id="Icons-/-Gray-/-Block" fill="#C0C1CC" fill-rule="nonzero">
            <path d="M2.38548736,14.919639 C3.67119134,14.919639 4.71711191,15.965343 4.71711191,17.2513357 C4.71711191,18.5373285 3.67119134,19.5829603 2.38548736,19.5829603 C1.09978339,19.5829603 0.0533574007,18.5368231 0.0533574007,17.2513357 C0.0533574007,15.965343 1.09978339,14.919639 2.38548736,14.919639 Z M9.93241877,14.919639 C11.2179061,14.919639 12.2640433,15.965343 12.2640433,17.2513357 C12.2640433,18.5373285 11.2179061,19.5829603 9.93241877,19.5829603 C8.64628159,19.5829603 7.60028881,18.5368231 7.60028881,17.2513357 C7.60028881,15.965343 8.6466426,14.919639 9.93241877,14.919639 Z M17.6007942,14.919639 C18.8862816,14.919639 19.932491,15.965343 19.932491,17.2513357 C19.932491,18.5373285 18.886787,19.5829603 17.6007942,19.5829603 C16.3153069,19.5829603 15.2690975,18.5368231 15.2690975,17.2513357 C15.2690975,15.965343 16.3153069,14.919639 17.6007942,14.919639 Z M2.33212996,7.47133574 C3.61783394,7.47133574 4.66404332,8.51725632 4.66404332,9.8032491 C4.66404332,11.0891697 3.61783394,12.1348736 2.33212996,12.1348736 C1.04642599,12.1348736 4.05897538e-13,11.0891697 4.05897538e-13,9.8032491 C4.05897538e-13,8.51732852 1.04642599,7.47133574 2.33212996,7.47133574 Z M9.87862816,7.47133574 C11.1649819,7.47133574 12.2103249,8.51725632 12.2103249,9.8032491 C12.2103249,11.0891697 11.1641155,12.1348736 9.87862816,12.1348736 C8.59292419,12.1348736 7.54693141,11.0891697 7.54693141,9.8032491 C7.54693141,8.51725632 8.59249097,7.47133574 9.87862816,7.47133574 Z M17.54787,7.47133574 C18.8338628,7.47133574 19.8795668,8.51725632 19.8795668,9.8032491 C19.8795668,11.0891697 18.8338628,12.1348736 17.54787,12.1348736 C16.2615162,12.1348736 15.2153069,11.0891697 15.2153069,9.8032491 C15.2153069,8.51725632 16.2618773,7.47133574 17.54787,7.47133574 Z M2.39306859,-3.77475828e-14 C3.67877256,-3.77475828e-14 4.72476534,1.04599278 4.72476534,2.33169675 C4.72476534,3.61740072 3.67927798,4.6633213 2.39306859,4.6633213 C1.10685921,4.6633213 0.0613718412,3.61740072 0.0613718412,2.33169675 C0.0613718412,1.04599278 1.10729242,-3.77475828e-14 2.39306859,-3.77475828e-14 Z M9.93956679,-3.77475828e-14 C11.2257762,-3.77475828e-14 12.2714801,1.04599278 12.2714801,2.33169675 C12.2714801,3.61740072 11.225343,4.6633213 9.93956679,4.6633213 C8.65386282,4.6633213 7.60787004,3.61740072 7.60787004,2.33169675 C7.60787004,1.04599278 8.65386282,-3.77475828e-14 9.93956679,-3.77475828e-14 Z M17.6081588,1.24344979e-14 C18.8945126,1.24344979e-14 19.9398556,1.04606498 19.9398556,2.33176895 C19.9398556,3.61747292 18.8936462,4.6633935 17.6081588,4.6633935 C16.3225993,4.6633935 15.2764621,3.61740072 15.2764621,2.33169675 C15.2764621,1.04599278 16.3218051,1.24344979e-14 17.6081588,1.24344979e-14 Z" id="Combined-Shape"></path>
        </g>
    </g>
</svg>