<?xml version="1.0" encoding="UTF-8"?>
<svg width="52px" height="29px" viewBox="0 0 52 29" version="1.1" xmlns="http://www.w3.org/2000/svg" xmlns:xlink="http://www.w3.org/1999/xlink">
    <!-- Generator: Sketch 61.2 (89653) - https://sketch.com -->
    <title>Flags / Card / Type-new</title>
    <desc>Created with Sketch.</desc>
    <g id="Web" stroke="none" stroke-width="1" fill="none" fill-rule="evenodd">
        <g id="Desktop-HD" transform="translate(-280.000000, -683.000000)">
            <g id="Новинки" transform="translate(73.000000, 622.000000)">
                <g id="1" transform="translate(0.000000, 46.000000)">
                    <g id="Flags-/-Card-/-Type-new" transform="translate(207.000000, 15.000000)">
                        <g id="Group-4">
                            <rect id="Rectangle" fill="#73D098" x="0" y="0" width="52" height="29" rx="6"></rect>
                            <text id="new" font-family="Lato-Black, Lato" font-size="16" font-weight="700" fill="#FFFFFF">
                                <tspan x="7" y="20">NEW</tspan>
                            </text>
                        </g>
                    </g>
                </g>
            </g>
        </g>
    </g>
</svg>