<?xml version="1.0" encoding="UTF-8"?>
<svg width="65px" height="65px" viewBox="0 0 65 65" version="1.1" xmlns="http://www.w3.org/2000/svg" xmlns:xlink="http://www.w3.org/1999/xlink">
    <!-- Generator: Sketch 62 (91390) - https://sketch.com -->
    <title>Flying button</title>
    <desc>Created with Sketch.</desc>
    <defs>
        <circle id="path-1" cx="22.5" cy="22.5" r="22.5"></circle>
        <filter x="-38.9%" y="-27.8%" width="177.8%" height="177.8%" filterUnits="objectBoundingBox" id="filter-2">
            <feOffset dx="0" dy="5" in="SourceAlpha" result="shadowOffsetOuter1"></feOffset>
            <feGaussianBlur stdDeviation="5" in="shadowOffsetOuter1" result="shadowBlurOuter1"></feGaussianBlur>
            <feColorMatrix values="0 0 0 0 0.489964189   0 0 0 0 0.520268232   0 0 0 0 0.589673913  0 0 0 0.5 0" type="matrix" in="shadowBlurOuter1"></feColorMatrix>
        </filter>
    </defs>
    <g id="Web" stroke="none" stroke-width="1" fill="none" fill-rule="evenodd">
        <g id="Filter-mob" transform="translate(-251.000000, -1036.000000)">
            <g id="Flying-button" transform="translate(261.000000, 1041.000000)">
                <g id="bg">
                    <use fill="black" fill-opacity="1" filter="url(#filter-2)" xlink:href="#path-1"></use>
                    <use fill="#6CCA32" fill-rule="evenodd" xlink:href="#path-1"></use>
                </g>
                <path d="M15.8535534,15.1464466 L22.571,21.864 L29.2885822,15.1464466 C29.4621486,14.9728803 29.731573,14.9535951 29.9264411,15.0885912 L29.995689,15.1464466 C30.1909512,15.3417088 30.1909512,15.6582912 29.995689,15.8535534 L29.995689,15.8535534 L23.278,22.571 L29.995689,29.2885822 C30.1909512,29.4838444 30.1909512,29.8004269 29.995689,29.995689 C29.8004269,30.1909512 29.4838444,30.1909512 29.2885822,29.995689 L22.571,23.278 L15.8535534,29.995689 C15.679987,30.1692554 15.4105626,30.1885405 15.2156945,30.0535445 L15.1464466,29.995689 C14.9511845,29.8004269 14.9511845,29.4838444 15.1464466,29.2885822 L15.1464466,29.2885822 L21.864,22.571 L15.1464466,15.8535534 C14.9511845,15.6582912 14.9511845,15.3417088 15.1464466,15.1464466 C15.3417088,14.9511845 15.6582912,14.9511845 15.8535534,15.1464466 Z" id="Combined-Shape" fill="#FFFFFF"></path>
            </g>
        </g>
    </g>
</svg>