<?xml version="1.0" encoding="UTF-8"?>
<svg width="25px" height="25px" viewBox="0 0 25 25" version="1.1" xmlns="http://www.w3.org/2000/svg" xmlns:xlink="http://www.w3.org/1999/xlink">
    <!-- Generator: Sketch 61.2 (89653) - https://sketch.com -->
    <title>Icons / White / New</title>
    <desc>Created with Sketch.</desc>
    <g id="Symbols" stroke="none" stroke-width="1" fill="none" fill-rule="evenodd">
        <g id="Headers-/-Menu-line" transform="translate(-1496.000000, -12.000000)" fill="#FFFFFF">
            <g id="Header">
                <g id="New" transform="translate(1428.000000, 0.000000)">
                    <g id="Icons-/-White-/-New" transform="translate(68.000000, 12.000000)">
                        <g id="new">
                            <path d="M12.5068382,24.9998093 C11.9023641,24.9998093 11.3259775,24.8285293 10.8835009,24.518013 L9.83516553,23.7848282 C9.35629388,23.4483719 8.3805508,23.1426239 7.78557105,23.1426239 L6.48919566,23.1426239 C5.36549889,23.1426239 4.21252779,22.3348618 3.86361015,21.3031769 L3.46247354,20.1133728 C3.27891596,19.5695877 2.67503526,18.7675476 2.19576799,18.4318542 L1.14664147,17.6973343 C0.236567745,17.0598984 -0.204128689,15.7526016 0.14439333,14.7201538 L0.544936581,13.5314941 C0.728494162,12.9878998 0.728494162,11.9974136 0.544936581,11.4536285 L0.14439333,10.263443 C-0.203733116,9.23309326 0.236567745,7.92503359 1.14664147,7.28702544 L2.1971526,6.55250547 C2.67562867,6.21700288 3.27950937,5.41477202 3.46286916,4.87022402 L3.86361015,3.6819458 C4.21213222,2.65045166 5.36589446,1.843071 6.48959123,1.843071 L7.78616446,1.843071 C8.37956181,1.843071 9.35589826,1.5369415 9.83437433,1.20124814 L10.8846876,0.465393066 C11.7684541,-0.155067432 13.2456179,-0.155448926 14.1309667,0.465965283 L15.1796977,1.20048525 C15.658965,1.5369415 16.635697,1.8426895 17.2292921,1.8426895 L18.5264588,1.8426895 C19.6511445,1.8426895 20.8041156,2.65045166 21.1516486,3.6819458 L21.5527853,4.86965181 C21.7357494,5.41381836 22.339828,6.21566772 22.8200842,6.55307769 L23.8682217,7.2862625 C24.7782955,7.92446138 25.2189919,9.23175811 24.8718544,10.2630615 L24.4703222,11.4528656 C24.2877537,11.9960785 24.287358,12.9873276 24.4703222,13.5307312 L24.8718544,14.7192001 C25.2185963,15.7520294 24.7778998,17.0595169 23.8682217,17.6963806 L22.8190952,18.4314728 C22.3392345,18.7669754 21.7357494,19.5678711 21.5531808,20.1116562 L21.1516486,21.3018417 C20.8045112,22.3331451 19.6511445,23.1416702 18.5264588,23.1416702 L17.2292921,23.1416702 C16.6351036,23.1416702 15.658965,23.4474182 15.1804889,23.7831116 L14.1295821,24.518013 C13.6875011,24.8289108 13.1111145,24.9998093 12.5068382,24.9998093 Z M6.48919566,3.44390869 C6.07816907,3.44390869 5.56962758,3.80039214 5.44184932,4.17766572 L5.04170169,5.36537168 C4.74618984,6.24027251 3.9427298,7.30743408 3.17250006,7.84778594 L2.12198893,8.58230591 C1.79008199,8.81519316 1.59584328,9.39178467 1.7226325,9.76829531 L2.12376911,10.9580994 C2.41868761,11.8326187 2.41868761,13.1521225 2.12337354,14.0262604 L1.72302813,15.2143479 C1.59584328,15.5921936 1.78929084,16.1684036 2.12198893,16.4007187 L3.17190665,17.1358108 C3.9427298,17.675972 4.74618984,18.7431335 5.04130612,19.6172714 L5.44244273,20.8072662 C5.56962758,21.1839676 6.07876248,21.5404511 6.48919566,21.5404511 L7.78557105,21.5404511 C8.74153417,21.5404511 10.0430524,21.9484329 10.811502,22.4895478 L11.8592439,23.2223511 C12.1780961,23.4466553 12.8363715,23.4457016 13.1524545,23.2233047 L14.2033612,22.4882126 C14.9718108,21.9484329 16.2731312,21.5400696 17.2283031,21.5400696 L18.5256676,21.5400696 C18.9361007,21.5400696 19.44484,21.1835861 19.5716293,20.806694 L19.9731615,19.6172714 C20.2666954,18.7431335 21.0703532,17.6755905 21.8429566,17.1352387 L22.8918853,16.4003372 C23.2241878,16.1680222 23.4190199,15.5908584 23.2922307,15.2135849 L22.8906985,14.0254975 C22.5965712,13.1507874 22.5965712,11.8326187 22.8906985,10.9580994 L23.2922307,9.76829531 C23.4190199,9.39178467 23.2247812,8.81519316 22.8914897,8.58192441 L21.8429566,7.84816743 C21.0699576,7.30571748 20.2662998,6.23817441 19.9731615,5.36441802 L19.5720249,4.17728423 C19.44484,3.80001069 18.9366941,3.44390869 18.5256676,3.44390869 L17.2283031,3.44390869 C16.2745158,3.44390869 14.973591,3.0363083 14.2023722,2.49557495 L13.1534435,1.76067354 C12.8353825,1.5369415 12.1767115,1.53789521 11.8606285,1.76029204 L10.8101174,2.49614717 C10.0406788,3.0363083 8.73975399,3.44448091 7.78517548,3.44448091 L6.48919566,3.44448091 L6.48919566,3.44390869 Z" id="Shape" fill-rule="nonzero"></path>
                            <path d="M7.83739444,15.2439117 C7.59311252,15.2439117 7.35535796,15.1393891 7.1943495,14.9494171 L5.36193848,12.7861023 L5.36193848,14.4430161 C5.36193848,14.8853302 4.99047176,15.2439117 4.53177559,15.2439117 C4.07307943,15.2439117 3.70161266,14.8853302 3.70161266,14.4430161 L3.70161266,10.5405808 C3.70161266,10.2018356 3.9219609,9.90009307 4.25307665,9.78641509 C4.58260995,9.67369082 4.95269212,9.77134707 5.17482049,10.033989 L7.00723151,12.1973038 L7.00723151,10.5409622 C7.00723151,10.098648 7.37869828,9.740448 7.83739444,9.740448 C8.29609061,9.740448 8.66735954,10.0990295 8.66735954,10.5409622 L8.66735954,14.4433975 C8.66735954,14.7817612 8.4470113,15.0842667 8.11609339,15.1975632 C8.02490801,15.2286529 7.93095341,15.2439117 7.83739444,15.2439117 L7.83739444,15.2439117 Z" id="Path" fill-rule="nonzero"></path>
                            <path d="M19.4209063,15.2439117 C19.0747579,15.2439117 18.7626309,15.03582 18.6425668,14.7195816 L17.9328636,12.8595352 L17.2233582,14.7195816 C17.0983491,15.0484085 16.7620906,15.2626038 16.4044698,15.2425766 C16.0421018,15.2261734 15.7335352,14.9841309 15.6413608,14.645958 L14.5811575,10.7435227 C14.4650494,10.3158951 14.7302981,9.87834932 15.1737637,9.76657866 C15.6158447,9.65328218 16.0707827,9.91039277 16.1872864,10.3380203 L16.577544,11.7753982 L17.1541285,10.2647781 C17.2741925,9.94949341 17.5853305,9.740448 17.9328636,9.740448 C18.2805944,9.740448 18.5921281,9.94949341 18.7117965,10.2647781 L19.2881831,11.7753982 L19.6786386,10.3380203 C19.7945489,9.91039277 20.249289,9.65251924 20.6921613,9.76657866 C21.1356269,9.87834932 21.4008755,10.3162766 21.2847674,10.7435227 L20.2245642,14.645958 C20.1323898,14.9841309 19.8234276,15.2261734 19.4614552,15.2425766 C19.4474114,15.2429581 19.4343567,15.2439117 19.4209063,15.2439117 L19.4209063,15.2439117 Z" id="Path" fill-rule="nonzero"></path>
                            <path d="M13.1552237,15.2439117 L10.4072006,15.2439117 C9.94850441,15.2439117 9.57703764,14.8853302 9.57703764,14.4430161 L9.57703764,10.5405808 C9.57703764,10.0982666 9.94850441,9.7400665 10.4072006,9.7400665 L13.1552237,9.7400665 C13.6139199,9.7400665 13.9851888,10.098648 13.9851888,10.5405808 C13.9851888,10.9823227 13.6139199,11.3409042 13.1552237,11.3409042 L11.2367701,11.3409042 L11.2367701,13.6421204 L13.1552237,13.6421204 C13.6139199,13.6421204 13.9851888,14.0007019 13.9851888,14.4430161 C13.9851888,14.8853302 13.6139199,15.2439117 13.1552237,15.2439117 L13.1552237,15.2439117 Z" id="Path" fill-rule="nonzero"></path>
                            <path d="M12.2558311,13.2926941 L10.4072006,13.2926941 C9.94850441,13.2926941 9.57703764,12.9341125 9.57703764,12.4917984 C9.57703764,12.0494843 9.94850441,11.6912842 10.4072006,11.6912842 L12.2558311,11.6912842 C12.7145273,11.6912842 13.085994,12.0498657 13.085994,12.4917984 C13.085994,12.9335403 12.7145273,13.2926941 12.2558311,13.2926941 Z" id="Path" fill-rule="nonzero"></path>
                            <path d="M19.6475842,8.65077974 C19.3809509,8.65077974 19.1192627,8.52718354 18.9590454,8.29830171 C17.5071999,6.22692109 15.0954352,4.99019624 12.5072338,4.99019624 C9.91883452,4.99019624 7.50726768,6.22692109 6.05522437,8.29830171 C5.79887671,8.66432188 5.28281883,8.76102446 4.90284674,8.51345063 C4.52287459,8.26568604 4.42298605,7.76805879 4.67972933,7.40203857 C6.44014148,4.88967896 9.36657938,3.3893585 12.5068382,3.3893585 C15.6468992,3.3893585 18.5733371,4.88929746 20.3337493,7.40203857 C20.5904925,7.76844023 20.490604,8.26625825 20.1106319,8.51345063 C19.9690077,8.60614775 19.807208,8.65077974 19.6475842,8.65077974 Z" id="Path" fill-rule="nonzero"></path>
                            <path d="M12.5072338,21.5950012 C9.36657938,21.5950012 6.44014148,20.0946808 4.68012491,17.5823212 C4.42338168,17.215538 4.52327022,16.7181015 4.90324231,16.4705276 C5.28281883,16.223526 5.79848114,16.3196563 6.05581778,16.6856766 C7.50726768,18.7570572 9.91883452,19.993782 12.5076294,19.993782 C15.0964242,19.993782 17.5079911,18.7570572 18.9596388,16.6856766 C19.215393,16.3196563 19.7326377,16.223526 20.1120165,16.4705276 C20.4919886,16.7181015 20.5918771,17.2159195 20.3351339,17.5823212 C18.5741283,20.0946808 15.6476904,21.5950012 12.5072338,21.5950012 Z" id="Path" fill-rule="nonzero"></path>
                        </g>
                    </g>
                </g>
            </g>
        </g>
    </g>
</svg>