<?xml version="1.0" encoding="UTF-8"?>
<svg width="23px" height="23px" viewBox="0 0 23 23" version="1.1" xmlns="http://www.w3.org/2000/svg" xmlns:xlink="http://www.w3.org/1999/xlink">
    <!-- Generator: Sketch 62 (91390) - https://sketch.com -->
    <title>Shape</title>
    <desc>Created with Sketch.</desc>
    <g id="Web" stroke="none" stroke-width="1" fill="none" fill-rule="evenodd">
        <g id="Services" transform="translate(-198.000000, -2512.000000)" fill="#FF9F15" fill-rule="nonzero">
            <g id="СРШ" transform="translate(73.000000, 2134.000000)">
                <g id="Page" transform="translate(0.000000, 115.000000)">
                    <g id="Yellow" transform="translate(125.000000, 247.000000)">
                        <path d="M11.5,16 C5.15864565,16 0,21.1586457 0,27.5 C0,33.8413543 5.15864565,39 11.5,39 C17.8413543,39 23,33.8413543 23,27.5 C23,21.1586457 17.8413543,16 11.5,16 Z M16.7255282,24.6067897 L10.6406096,30.7241022 C10.4580569,30.907632 10.2184243,31 9.97879177,31 C9.73915919,31 9.49952665,30.907632 9.31697397,30.7241022 L6.2746004,27.665446 C5.90846653,27.2975249 5.90846653,26.7026474 6.2746004,26.3347263 C6.64056282,25.9666329 7.23210214,25.9666329 7.59823601,26.3347263 L9.97879177,28.7280227 L15.4018925,23.2760701 C15.767855,22.9079766 16.3593943,22.9079766 16.7255282,23.2760701 C17.0914906,23.6439911 17.0914906,24.2386963 16.7255282,24.6067897 Z" id="Shape"></path>
                    </g>
                </g>
            </g>
        </g>
    </g>
</svg>