<?xml version="1.0" encoding="UTF-8"?>
<svg width="25px" height="25px" viewBox="0 0 25 25" version="1.1" xmlns="http://www.w3.org/2000/svg" xmlns:xlink="http://www.w3.org/1999/xlink">
    <!-- Generator: Sketch 61.2 (89653) - https://sketch.com -->
    <title>Icons / White / Soon</title>
    <desc>Created with Sketch.</desc>
    <g id="Symbols" stroke="none" stroke-width="1" fill="none" fill-rule="evenodd">
        <g id="Headers-/-Menu-line" transform="translate(-1335.000000, -12.000000)" fill="#FFFFFF" fill-rule="nonzero">
            <g id="Header">
                <g id="Soon" transform="translate(1267.000000, 0.000000)">
                    <g id="Icons-/-White-/-Soon" transform="translate(68.000000, 12.000000)">
                        <path d="M12.4999996,0.000675862287 L12.5762371,5.47575066e-05 C12.6515129,0.000597937518 12.7268259,0.00181636256 12.8021687,0.00371055758 L12.4999996,0.000675862287 C12.7115098,0.000675862287 12.921809,0.00595511322 13.1307725,0.0163887774 C13.1625109,0.0178743521 13.1941548,0.0196128389 13.2258017,0.0214704533 C13.3407551,0.0281068984 13.4551331,0.0362661747 13.5690798,0.0459603662 C13.575246,0.046816091 13.5822362,0.0474218396 13.5892264,0.0480334024 L13.6060758,0.0491631021 C13.6930218,0.0568198767 13.7797149,0.0653704813 13.8661459,0.0748056455 L13.5892264,0.0480334024 C13.6998045,0.0577077361 13.8099237,0.0688014508 13.9195675,0.0812949989 C14.0080578,0.090803277 14.0957198,0.101705857 14.1830981,0.113514591 C14.1917192,0.11529999 14.2010459,0.116572162 14.2103689,0.117854487 C14.3996976,0.143254545 14.5869989,0.173406313 14.7728721,0.207683246 C14.787773,0.211005293 14.8030885,0.213854317 14.8183934,0.216730931 C14.98668,0.247855779 15.1533094,0.282818806 15.3186923,0.321072832 C15.3621863,0.331444239 15.4054947,0.341681968 15.448709,0.35214211 C15.4981861,0.363891558 15.547991,0.376305632 15.5976776,0.389018176 C15.6246929,0.396067596 15.6518753,0.4031012 15.6790191,0.410222969 L15.7718736,0.434938995 C15.8162869,0.446993085 15.8606027,0.459286441 15.9048196,0.471817585 C15.9377206,0.481043835 15.9707103,0.490514916 16.00364,0.500116704 C16.0528876,0.514665624 16.1022547,0.529434477 16.1514934,0.544499789 C16.2029871,0.559940385 16.2542588,0.575950752 16.3053789,0.592278493 C16.3389578,0.603435012 16.3723156,0.61427505 16.405612,0.625251479 C16.464927,0.644265869 16.5239636,0.66417262 16.5827896,0.684502843 C16.6076214,0.693747559 16.6329942,0.702629725 16.6583297,0.711591385 C18.4849721,1.35552728 20.1055031,2.4088234 21.4212023,3.75253403 C21.5906338,3.92577564 21.7556719,4.10405527 21.9154757,4.28701848 C21.9408773,4.31653231 21.9663372,4.34600474 21.9916598,4.37559423 L21.9154757,4.28701848 C23.053683,5.59017983 23.926348,7.13094151 24.4482594,8.82409324 C24.4544633,8.84783797 24.461709,8.87153675 24.4688855,8.89526318 C24.5986279,9.32172684 24.7051115,9.75792406 24.7880067,10.2023208 C24.9436676,11.0334606 25.016155,11.8912213 24.9970043,12.7652055 L24.9996553,12.5001743 C24.9996553,12.6222149 24.9978975,12.7438523 24.9944059,12.8650625 C24.9925134,12.9289944 24.9900852,12.9937145 24.9871521,13.058517 C24.9858215,13.0930612 24.9841803,13.1270579 24.982403,13.1610191 C24.9790184,13.2186656 24.9755013,13.2769841 24.9715733,13.3353644 C24.9150291,14.1951549 24.7708772,15.0307183 24.5483463,15.834026 C24.5323872,15.8906117 24.5163017,15.9472714 24.4998317,16.003755 C24.4876925,16.0459279 24.4750654,16.0882695 24.46222,16.1305169 C24.4443464,16.1891832 24.4262123,16.2474344 24.4076689,16.30549 C24.4027535,16.3206275 24.3979218,16.3356137 24.3930627,16.3505875 C24.3679743,16.4284386 24.3420722,16.5058484 24.3154435,16.5828973 C24.3047878,16.612746 24.2941225,16.6431463 24.2833432,16.673493 C24.261448,16.7363985 24.2389168,16.7983994 24.2159149,16.860157 C24.2132448,16.8657967 24.2110049,16.8717826 24.2087606,16.8777662 L24.2159149,16.860157 C23.5706918,18.5925156 22.5551525,20.1334912 21.2730716,21.3960083 L21.2325898,21.4352828 C21.0817012,21.5827693 20.9271038,21.7264767 20.7689522,21.8662504 C20.7209809,21.908321 20.6727973,21.950193 20.6242993,21.9916963 C19.3404736,23.0925586 17.8310154,23.9378087 16.1759861,24.4479369 C16.1519897,24.4544625 16.1282906,24.4617081 16.1045638,24.4688844 C15.9552016,24.5147757 15.8042282,24.5572255 15.652136,24.5968759 C15.6004451,24.6099424 15.5491018,24.6230188 15.4976431,24.6357735 C15.4677056,24.6434881 15.4374046,24.6508524 15.4070609,24.6581057 C15.3608874,24.6689397 15.3148625,24.6797021 15.2687491,24.6902068 C15.1974184,24.7065206 15.1257572,24.7221196 15.0538715,24.7370992 C15.0348897,24.7411255 15.0158361,24.7450649 14.9967681,24.7489604 L14.9066168,24.7668552 C14.8870094,24.7706939 14.8673858,24.7744866 14.8477461,24.7782332 C14.7738036,24.7926193 14.6994144,24.8061668 14.6248219,24.8190453 C14.6147137,24.8203927 14.6050584,24.8220405 14.5953994,24.8236772 C14.0136782,24.9231023 13.4192065,24.9814547 12.8157875,24.9962473 C12.8097725,24.9955109 12.8037773,24.995656 12.797781,24.9957969 L12.8157875,24.9962473 C12.7542062,24.9977569 12.6925317,24.9988129 12.6307676,24.9994121 L12.4999996,24.9992913 L12.4999996,24.9992913 L12.4668432,24.999929 C12.360291,24.9995675 12.2534828,24.9978459 12.1464369,24.9947487 L12.4999996,24.9992913 C12.3460881,24.9992913 12.1927227,24.9965605 12.0400497,24.9910988 C11.9178461,24.9866504 11.7952558,24.980281 11.672391,24.9720924 C11.6630406,24.971967 11.6534324,24.9713303 11.6438275,24.9706827 L11.6284477,24.9690869 C11.5558555,24.9639951 11.4831687,24.9582681 11.4103929,24.951901 C6.27790021,24.5028661 2.1344368,20.9957821 0.619807923,16.385756 C0.610056804,16.3652929 0.602209913,16.3439487 0.595220536,16.3220985 C0.407794525,15.7376339 0.264211638,15.140606 0.165105366,14.5349587 C0.151761227,14.4500403 0.13862782,14.3649859 0.126366942,14.2796839 C0.121909926,14.2507029 0.117834419,14.2213563 0.113862683,14.1919914 C0.0256571638,13.5437869 -0.0124197595,12.881995 0.00357549531,12.210698 L0.000343948457,12.5001743 C0.000343948457,12.355272 0.00282180744,12.2109381 0.00773738335,12.0672127 C0.00950869231,12.0191247 0.0114892539,11.9708129 0.0137510066,11.9224554 C0.272545865,6.25617065 4.32114827,1.56230893 9.67831098,0.321766202 C9.69503276,0.316044349 9.71235915,0.3115124 9.72995093,0.307535688 C10.5210772,0.128091924 11.3273911,0.0268531814 12.1396941,0.0044836128 C12.1598083,0.0052205115 12.1805155,0.00468154149 12.2012349,0.00419322542 C12.2753023,0.00126719661 12.3488975,0.000252326623 12.422533,-0.000115820467 C12.4484108,0.000754433623 12.4741962,0.000675862287 12.4999996,0.000675862287 Z M1.78135453,10.5127545 L1.73449257,10.7894251 C1.73379664,10.7947911 1.73304423,10.8001591 1.7322349,10.8055285 C1.69411163,11.0508903 1.66342216,11.2988172 1.64144665,11.5499952 L1.62417788,11.7668521 C1.62204132,11.7988589 1.62004357,11.830903 1.61818521,11.8629839 C1.60990133,12.0095005 1.60423816,12.1553541 1.60148084,12.3006887 C1.60055779,12.3569537 1.5999661,12.4139768 1.59981617,12.4711019 L1.60148084,12.3006887 C1.59740945,12.5152858 1.59967355,12.7287514 1.60811012,12.9408912 C1.62483223,13.3523818 1.66409354,13.7613911 1.72604336,14.1660448 C1.72976783,14.1853954 1.73291992,14.2054069 1.73612708,14.2254021 L1.72604336,14.1660448 C1.74250439,14.2735675 1.76056733,14.3807828 1.78022774,14.4876618 L1.73612708,14.2254021 C2.50857021,19.0412467 6.47518637,22.9142255 11.549826,23.3581933 L11.814,23.377 L12.0450864,23.3903323 C12.0757338,23.3916286 12.1063599,23.3927956 12.1369642,23.3938334 C12.2518377,23.3976111 12.3676106,23.3996894 12.4839089,23.3998652 C12.6163765,23.400392 12.7484458,23.3982708 12.8800137,23.3937752 C12.9363972,23.3914036 12.992846,23.3890241 13.0491836,23.3862149 L12.8800137,23.3937752 C12.9619037,23.390977 13.0435993,23.387259 13.1250896,23.3826305 L13.0491836,23.3862149 C13.1505494,23.3811604 13.2515551,23.3747146 13.3521819,23.3668964 L13.1250896,23.3826305 C13.2116336,23.377715 13.2979459,23.3717725 13.3840132,23.3648143 L13.3521819,23.3668964 C13.4495727,23.3593296 13.5466085,23.3504771 13.6432724,23.3403561 L13.3840132,23.3648143 C13.4751719,23.3574445 13.5660558,23.3489352 13.656649,23.3392997 L13.6432724,23.3403561 C13.7302646,23.3312476 13.8169555,23.3211118 13.9033328,23.3099608 L13.656649,23.3392997 C13.7666758,23.3275973 13.8762739,23.3142337 13.9854147,23.2992328 L13.9033328,23.3099608 C13.9976069,23.2977904 14.0915073,23.2844109 14.185018,23.2698383 L13.9854147,23.2992328 C14.0738541,23.2870773 14.1619933,23.2738466 14.2498171,23.2595534 L14.185018,23.2698383 C14.2655585,23.2572869 14.3458099,23.2438506 14.4257619,23.2295394 L14.2498171,23.2595534 C14.3764747,23.2389402 14.5024765,23.2161173 14.6277772,23.1911226 L14.4257619,23.2295394 C14.5050497,23.2153472 14.5840431,23.2002947 14.662732,23.1843919 L14.6277772,23.1911226 C14.7186652,23.1729925 14.8091843,23.1537197 14.8993173,23.1333188 L14.662732,23.1843919 C14.7525824,23.1662335 14.8420359,23.1469664 14.9310774,23.1266058 L14.8993173,23.1333188 C16.7740736,22.7089825 18.4817471,21.7965783 19.8666829,20.5266876 C19.9050936,20.4915703 19.9430282,20.4562277 19.9807097,20.4206199 L19.8666829,20.5266876 C19.9239006,20.474223 19.9805673,20.4211482 20.0366723,20.3674724 L19.9807097,20.4206199 C20.1130419,20.2955701 20.2422524,20.1672497 20.3682105,20.0357895 C20.3898026,20.0139702 20.4110451,19.9916488 20.432195,19.9692364 L20.3682105,20.0357895 C21.37806,18.9818273 22.1788495,17.7260431 22.7032051,16.3358097 C22.7057208,16.3313172 22.7074791,16.3266354 22.7092342,16.3219519 L22.7032051,16.3358097 C22.7923413,16.0994814 22.8734893,15.8592678 22.9463182,15.6155 C22.9885776,15.4743911 23.0279163,15.3318098 23.0644221,15.1880069 C23.0742664,15.14976 23.0836468,15.1120511 23.0928297,15.0742657 L23.0644221,15.1880069 C23.1545181,14.8331027 23.2273594,14.4707578 23.2819317,14.101823 C23.2881116,14.0635795 23.2935242,14.0255836 23.2987397,13.9875258 L23.2819317,14.101823 C23.2968566,14.0009238 23.3104151,13.8995317 23.3225863,13.7976642 L23.2987397,13.9875258 C23.3115227,13.894247 23.3231209,13.800596 23.3335187,13.7065885 L23.3225863,13.7976642 C23.3331219,13.7094868 23.342618,13.6209532 23.3510614,13.5320747 L23.3335187,13.7065885 C23.3484496,13.5715969 23.3609052,13.4358703 23.3708389,13.2994551 L22.1263576,13.2996905 C21.6842531,13.2996905 21.3264498,12.941701 21.3264498,12.4997928 C21.3264498,12.0578847 21.6842531,11.7002766 22.1263576,11.7002766 L23.3707661,11.6998927 C23.3425477,11.3128678 23.2940305,10.9313851 23.2262772,10.5565073 C23.2199571,10.5200011 23.2131482,10.4835541 23.2061563,10.4471653 L23.2262772,10.5565073 C23.1930659,10.3727494 23.1552326,10.1905785 23.1129024,10.0101198 C23.1017252,9.96321379 23.0903208,9.91618532 23.0786095,9.86926717 L23.1129024,10.0101198 C23.0951488,9.93443378 23.0766042,9.85904898 23.0572777,9.78397461 L23.0786095,9.86926717 C23.0100807,9.5947257 22.931043,9.3239615 22.8419159,9.05747457 C22.8301989,9.01963021 22.8175015,8.98226977 22.8046073,8.94500038 L22.8419159,9.05747457 C22.4062671,7.75490013 21.7295624,6.55451852 20.8607991,5.51472168 C20.8481964,5.49927547 20.835806,5.48455016 20.8233775,5.46985806 L20.8607991,5.51472168 C20.7524247,5.38501157 20.6410616,5.25780039 20.5268048,5.1332015 C20.494573,5.09834654 20.4623516,5.06371834 20.4299094,5.02930058 L20.5268048,5.1332015 C20.4743369,5.07598434 20.4212588,5.01931805 20.3675797,4.96321359 L20.4299094,5.02930058 C20.2990218,4.89044295 20.1645382,4.75501052 20.0266091,4.62315382 C20.0120436,4.60819769 19.9967204,4.59361064 19.9813543,4.57906714 L20.0266091,4.62315382 C18.9874336,3.62972836 17.7526811,2.83927225 16.3867141,2.31616012 C16.3653274,2.3070381 16.3436167,2.29882219 16.3218713,2.29067325 L16.3867141,2.31616012 C16.1339545,2.21936303 15.876702,2.13171982 15.6153646,2.05363836 C15.5672017,2.03901735 15.5186611,2.0249232 15.4699729,2.01115606 L15.6153646,2.05363836 C15.5375822,2.03039883 15.4594379,2.00800631 15.3809426,1.98647158 L15.4699729,2.01115606 C15.3857542,1.9873423 15.3010939,1.96450696 15.2160038,1.94266408 L15.3809426,1.98647158 C15.2852024,1.96020585 15.1889399,1.93521618 15.0921746,1.91152211 L15.2160038,1.94266408 C15.1115299,1.91584535 15.0064081,1.89052274 14.90066,1.8667222 L15.0921746,1.91152211 C15.0104326,1.89150666 14.9283318,1.87241574 14.8458839,1.85426111 L14.90066,1.8667222 C14.8048124,1.84514996 14.7084504,1.82482813 14.6115901,1.80577604 L14.8458839,1.85426111 C14.7568918,1.83466546 14.6674954,1.81616062 14.5777094,1.7987614 L14.6115901,1.80577604 C14.5260703,1.78895458 14.4401621,1.77312294 14.3538766,1.75829442 L14.5777094,1.7987614 C14.4743381,1.77872954 14.3704505,1.76016318 14.266069,1.74308488 L14.3538766,1.75829442 C14.2761368,1.74493451 14.1980908,1.73238886 14.1197468,1.7206672 L14.266069,1.74308488 C14.172955,1.72785009 14.0794481,1.71379944 13.9855642,1.70094897 L14.1197468,1.7206672 C14.0132175,1.70472854 13.9061371,1.6903134 13.7985262,1.67744623 L13.9855642,1.70094897 C13.8928814,1.68826288 13.7998311,1.67674645 13.706429,1.6664151 L13.7985262,1.67744623 C13.7123311,1.66713978 13.6257956,1.65782648 13.5389302,1.6495189 L13.706429,1.6664151 C13.5715447,1.65149534 13.4359264,1.63904705 13.2996206,1.62911666 L13.2999074,2.87317457 C13.2995259,3.31470128 12.9415319,3.67307225 12.4999996,3.67307225 C12.0580859,3.67307225 11.7000919,3.31470128 11.7000919,2.87317457 L11.7007066,1.62909261 C6.7286267,1.99117408 2.67102717,5.70353409 1.78135453,10.5127545 Z M12.4999996,4.91373381 C12.9421041,4.91373381 13.2999074,5.2715326 13.2999074,5.71363155 L13.2999074,12.1686955 L17.2536719,16.121838 C17.5660822,16.4348166 17.5660822,16.9408082 17.2536719,17.2532146 C17.0970853,17.4097992 16.8922448,17.4872333 16.687595,17.4872333 C16.4827546,17.4872333 16.2781048,17.409227 16.121709,17.2532146 L11.9341135,13.0656719 C11.7842023,12.9157625 11.7000919,12.712069 11.7000919,12.5001743 L11.7000919,5.71363155 C11.7000919,5.2715326 12.0580859,4.91373381 12.4999996,4.91373381 Z" id="Combined-Shape"></path>
                    </g>
                </g>
            </g>
        </g>
    </g>
</svg>