<?xml version="1.0" encoding="UTF-8"?>
<svg width="22px" height="22px" viewBox="0 0 22 22" version="1.1" xmlns="http://www.w3.org/2000/svg" xmlns:xlink="http://www.w3.org/1999/xlink">
    <!-- Generator: Sketch 39.1 (31720) - http://www.bohemiancoding.com/sketch -->
    <title>clock</title>
    <desc>Created with Sketch.</desc>
    <defs></defs>
    <g id="Page-1" stroke="none" stroke-width="1" fill="none" fill-rule="evenodd">
        <g id="Step1" transform="translate(-61.000000, -1128.000000)" fill="#F48000">
            <g id="terms" transform="translate(1.000000, 1089.000000)">
                <g id="item1" transform="translate(60.000000, 39.000000)">
                    <g id="clock">
                        <path d="M11,22 C17.0794473,22 22,17.0604491 22,11 C22,4.92055268 17.0604491,0 11,0 C4.93955095,0 0,4.92055268 0,11 C0,17.0604491 4.92055268,22 11,22 L11,22 Z M11,1.5388601 C16.224525,1.5388601 20.4611399,5.77547496 20.4611399,11 C20.4611399,16.224525 16.224525,20.4611399 11,20.4611399 C5.77547496,20.4611399 1.5388601,16.2055268 1.5388601,11 C1.5388601,5.77547496 5.77547496,1.5388601 11,1.5388601 Z M10.4870466,12.2918826 L14.1537133,12.2918826 C14.5906736,12.2918826 14.9326425,11.9499136 14.9326425,11.5129534 C14.9326425,11.0759931 14.5906736,10.7340242 14.1537133,10.7340242 L11.2659758,10.7340242 L11.2659758,6.21243523 C11.2659758,5.77547496 10.9240069,5.43350604 10.4870466,5.43350604 C10.0500864,5.43350604 9.70811744,5.77547496 9.70811744,6.21243523 L9.70811744,11.5129534 C9.70811744,11.9499136 10.0500864,12.2918826 10.4870466,12.2918826 L10.4870466,12.2918826 Z"></path>
                    </g>
                </g>
            </g>
        </g>
    </g>
</svg>